<?xml version="1.0" standalone="no"?>
<!DOCTYPE svg PUBLIC "-//W3C//DTD SVG 20010904//EN"
 "http://www.w3.org/TR/2001/REC-SVG-20010904/DTD/svg10.dtd">
<svg version="1.0" xmlns="http://www.w3.org/2000/svg"
 width="711.000000pt" height="31.000000pt" viewBox="0 0 711.000000 31.000000"
 preserveAspectRatio="xMidYMid meet">

<g transform="translate(0.000000,31.000000) scale(0.100000,-0.100000)"
fill="white" stroke="none">
<path d="M2 255 c6 -6 123 -15 598 -45 173 -11 380 -25 460 -30 80 -6 438 -22
795 -36 598 -25 735 -27 1715 -27 982 0 1116 2 1715 27 358 14 754 33 880 41
127 9 327 22 445 30 118 8 271 17 340 21 69 4 134 10 145 15 11 4 -1582 8
-3539 8 -1958 1 -3557 -1 -3554 -4z"/>
</g>
</svg>
